<?xml version="1.0" encoding="UTF-8"?><svg xmlns="http://www.w3.org/2000/svg" xmlns:xlink="http://www.w3.org/1999/xlink" fill-opacity="1" color-rendering="auto" color-interpolation="auto" stroke="black" text-rendering="auto" stroke-linecap="square" width="554" stroke-miterlimit="10" stroke-opacity="1" shape-rendering="auto" fill="black" stroke-dasharray="none" font-weight="normal" stroke-width="1" height="587" font-family="'Dialog'" font-style="normal" stroke-linejoin="miter" font-size="12" stroke-dashoffset="0" image-rendering="auto">
  <!--Generated by ySVG 2.5-->
  <defs id="genericDefs"/>
  <g>
    <defs id="defs1">
      <linearGradient x1="1838.5068" gradientUnits="userSpaceOnUse" x2="1941.4932" y1="-451.5694" y2="-388.4306" id="linearGradient1" spreadMethod="reflect">
        <stop stop-opacity="0.902" stop-color="rgb(255,255,255)" offset="0%"/>
        <stop stop-opacity="0.8" stop-color="rgb(212,212,212)" offset="100%"/>
      </linearGradient>
      <linearGradient x1="1841.9463" gradientUnits="userSpaceOnUse" x2="2361.0889" y1="-338.0127" y2="104.0914" id="linearGradient2" spreadMethod="reflect">
        <stop stop-opacity="0.902" stop-color="rgb(255,255,255)" offset="0%"/>
        <stop stop-opacity="0.8" stop-color="rgb(212,212,212)" offset="100%"/>
      </linearGradient>
      <linearGradient x1="1881.5908" gradientUnits="userSpaceOnUse" x2="2018.4092" y1="-267.5" y2="-212.5" id="linearGradient3" spreadMethod="reflect">
        <stop stop-opacity="0.902" stop-color="rgb(255,255,255)" offset="0%"/>
        <stop stop-opacity="0.8" stop-color="rgb(212,212,212)" offset="100%"/>
      </linearGradient>
      <linearGradient x1="1868.5596" gradientUnits="userSpaceOnUse" x2="2031.4404" y1="-147.5" y2="-92.5" id="linearGradient4" spreadMethod="reflect">
        <stop stop-opacity="0.902" stop-color="rgb(255,255,255)" offset="0%"/>
        <stop stop-opacity="0.8" stop-color="rgb(212,212,212)" offset="100%"/>
      </linearGradient>
      <linearGradient x1="1856.9463" gradientUnits="userSpaceOnUse" x2="2043.0537" y1="-27.5" y2="27.5" id="linearGradient5" spreadMethod="reflect">
        <stop stop-opacity="0.902" stop-color="rgb(255,255,255)" offset="0%"/>
        <stop stop-opacity="0.8" stop-color="rgb(212,212,212)" offset="100%"/>
      </linearGradient>
      <linearGradient x1="2153.9111" gradientUnits="userSpaceOnUse" x2="2346.0889" y1="-27.5" y2="27.5" id="linearGradient6" spreadMethod="reflect">
        <stop stop-opacity="0.902" stop-color="rgb(255,255,255)" offset="0%"/>
        <stop stop-opacity="0.8" stop-color="rgb(212,212,212)" offset="100%"/>
      </linearGradient>
      <clipPath clipPathUnits="userSpaceOnUse" id="clipPath1">
        <path d="M0 0 L554 0 L554 587 L0 587 L0 0 Z"/>
      </clipPath>
      <clipPath clipPathUnits="userSpaceOnUse" id="clipPath2">
        <path d="M1823 -467 L2377 -467 L2377 120 L1823 120 L1823 -467 Z"/>
      </clipPath>
      <clipPath clipPathUnits="userSpaceOnUse" id="clipPath3">
        <path d="M-7.5068 -7.4306 L546.4932 -7.4306 L546.4932 579.5695 L-7.5068 579.5695 L-7.5068 -7.4306 Z"/>
      </clipPath>
      <clipPath clipPathUnits="userSpaceOnUse" id="clipPath4">
        <path d="M-0.312 -54.4861 L272.4265 -54.4861 L272.4265 234.4986 L-0.312 234.4986 L-0.312 -54.4861 Z"/>
      </clipPath>
      <clipPath clipPathUnits="userSpaceOnUse" id="clipPath5">
        <path d="M-50.5908 -191.5 L503.4092 -191.5 L503.4092 395.5 L-50.5908 395.5 L-50.5908 -191.5 Z"/>
      </clipPath>
      <clipPath clipPathUnits="userSpaceOnUse" id="clipPath6">
        <path d="M-37.5596 -311.5 L516.4404 -311.5 L516.4404 275.5 L-37.5596 275.5 L-37.5596 -311.5 Z"/>
      </clipPath>
      <clipPath clipPathUnits="userSpaceOnUse" id="clipPath7">
        <path d="M-25.9463 -431.5 L528.0537 -431.5 L528.0537 155.5 L-25.9463 155.5 L-25.9463 -431.5 Z"/>
      </clipPath>
      <clipPath clipPathUnits="userSpaceOnUse" id="clipPath8">
        <path d="M-322.9111 -431.5 L231.0889 -431.5 L231.0889 155.5 L-322.9111 155.5 L-322.9111 -431.5 Z"/>
      </clipPath>
    </defs>
    <g fill="white" text-rendering="geometricPrecision" shape-rendering="geometricPrecision" transform="translate(-1823,467)" stroke="white">
      <rect x="1823" width="554" height="587" y="-467" clip-path="url(#clipPath2)" stroke="none"/>
    </g>
    <g text-rendering="geometricPrecision" shape-rendering="geometricPrecision" transform="matrix(1,0,0,1,7.5068,7.4306)" image-rendering="optimizeQuality">
      <image x="0" y="0" clip-path="url(#clipPath3)" width="123" xlink:href="data:image/png;base64,iVBORw0KGgoAAAANSUhEUgAAAHsAAABUCAYAAACiPUicAAACnElEQVR42u2dgY6i&#10;MBBA21p17/7/Y91dZU6TzmUkQIsIBXwvaRaJ4obHTKeYMM4BAAAAAEAd/Iuf8ROP&#10;Aa8jrW2ZQ/bjvcHI9oiuKtyOpkS6HxHJD9GHNEJLPCwvuknjloa+7iUWyj6k9x7T&#10;iEY6qXz5FK6Sr/fxa4YbEh4LRIf0vnMaX/dxMrIRvbzwxoi+JAeSXvu+lB4Lo/qY&#10;JP+9jz9JdiSNV5f9Y7Jrk0vlsSCqVfY5ibayoc4KSmUf0r5biuqrmcMnpfFTaxw4&#10;71WjOxjRWkcNTqu5yG5X4dFsk77rRnYwTmJJDVUS2b5jjT200Id5RUtPQGbrpzDi&#10;SxC9nqXXS/dMwoxfDisjcAqQDcgGZAOyAdmAbEA2IBuQDcgGZCMbkA3IBmQDsgHZ&#10;gGxANiAbkA3IRjYgG5ANyAZkA7IB2YBsmMJeHoKzxCM/hMgGZANpvHZ6l8IpQJC9&#10;/Tncj/y8IJvIZs5emWBf+RhEdoWIzkWpDIgWIhuQDaTxpZFM8VVStMkeCzUimzS+&#10;+6WY32vFjey81I8Q/kmtH6RnSfUxT1aOO41g/8YsIMjeR7VOgQbI/tjCZiNF5tvS&#10;uG3yuTXhufnXb+zC7rpnX9RtNxZKtt3gdN+afijwPVW3M//rmGq96wSuba4fcjNa&#10;dvtg2g3uusK5XnqufN+SPRTZW1maWS+2Q9/kLrt6UO3i+uj9qA3cmpWmcD/jhbQW&#10;tMuuOtHWjC/34hT33Lr32z33fowbqOb9jgR3eXk4uaS/v2mfTIlsvYIuRvTJFfR+&#10;hFlla5ddFf4W2ZrGndk+Opql15yvbRBqKr/m5uxSScE9N2ANZkCdObsx6fyWi+qx&#10;EdnV5JOIrh/h2SXX1ALGb+imyh5Fb6GQBAAAAACA//wDPovFiq4NsqMAAAAASUVO&#10;RK5CYII=" height="84" preserveAspectRatio="none"/>
      <rect x="1838.5068" y="-451.5694" transform="matrix(1,0,0,1,-1830.5068,459.5694)" clip-path="url(#clipPath2)" fill="url(#linearGradient1)" width="102.9863" image-rendering="auto" rx="4" ry="4" height="63.1389" stroke="none"/>
    </g>
    <g stroke-linecap="butt" transform="matrix(1,0,0,1,-1823,467)" fill="rgb(18,62,162)" text-rendering="geometricPrecision" shape-rendering="geometricPrecision" stroke="rgb(18,62,162)" stroke-miterlimit="1.45">
      <rect x="1838.5068" y="-451.5694" clip-path="url(#clipPath2)" fill="none" width="102.9863" rx="4" ry="4" height="63.1389"/>
    </g>
    <g stroke-linecap="butt" transform="matrix(1,0,0,1,-1823,467)" fill-opacity="0" fill="rgb(0,0,0)" text-rendering="geometricPrecision" shape-rendering="geometricPrecision" stroke="rgb(0,0,0)" stroke-opacity="0" stroke-miterlimit="1.45">
      <path d="M1882.5 -407.4306 L1897.5 -407.4306 L1897.5 -392.4306 L1882.5 -392.4306 Z" clip-path="url(#clipPath2)" stroke="none"/>
    </g>
    <g text-rendering="geometricPrecision" shape-rendering="geometricPrecision" transform="matrix(1,0,0,1,-1823,467)" stroke-linecap="butt">
      <path fill="none" d="M1882.5 -407.4306 L1897.5 -407.4306 L1897.5 -392.4306 L1882.5 -392.4306 Z" clip-path="url(#clipPath2)"/>
      <path fill="none" d="M1886.16 -399.9306 L1893.84 -399.9306 M1890 -403.7706 L1890 -396.0906" clip-path="url(#clipPath2)"/>
      <text x="1845.5068" y="-415.8457" clip-path="url(#clipPath2)" font-family="sans-serif" stroke="none" xml:space="preserve" stroke-miterlimit="1.45">ARM Processor</text>
    </g>
    <g text-rendering="geometricPrecision" shape-rendering="geometricPrecision" transform="matrix(2.0312,0,0,2.0312,0.6338,110.6748)" image-rendering="optimizeQuality">
      <image x="0" y="0" clip-path="url(#clipPath4)" width="276" xlink:href="data:image/png;base64,iVBORw0KGgoAAAANSUhEUgAAARQAAADuCAYAAAD4DviyAAADuklEQVR42u3abW+b&#10;MBSAUQjOuu3//9gt5WWgXa9W1BFS+BJzjmS1YW0qsfD0mrRpAAAAAAAAeD3tjq9v&#10;nT6o1vTg8a6gtJ8sUYH6YzIVa3z0jWljTC6xuuJzMYG6o5Ijsqwhjo97gtIWIbnG&#10;SkVUgHqDkkPSz+s91rS2/dkalCUkb/P6Pq9vRVSAeoOSY/I7WjAVx78clDydLDH5&#10;GR+vggLVByVPJpeYVvqIyfi/KSU9iEmeUFJMJktMfkRQumbjnV/gZYPSRUBu8fnq&#10;vdMtE0qeUlLzcR9FUKD+oORtTmo+3pDZFZT7SeV+AXUa7671ttnwzm7a+UNNKMA/&#10;pgxAUABBAQQFQFAAQQEEBRAUAEEBBAUQFABBAQQFEBRAUAAEBRAUQFAABAUQFEBQ&#10;AEEBEBRAUABBARAUQFAAQQEEBUBQAEEBBAVAUABBAQQFEBQAQQEEBRAUAEEBBAUQ&#10;FEBQAAQFEBRAUAAEBRAUQFAAQQEQFEBQAEEBBMUpAAQFEBRAUAAEBRAUQFAAQQEQ&#10;FEBQAEEBEBRAUABBAQQFQFAAQQEEBUBQAEEBBAUQFABBAQQFEBQAQQEEBRAUQFAA&#10;BAUQFEBQAAQFEBRAUABBARAUQFAAQQEQFEBQAEEBBAVAUABBAQQFQFAAQQEEBRAU&#10;AEEBBAUQFEBQAAQFEBRAUAAEBRAUQFAAQQEQFEBQAEEBEBRAUABBAQQFQFAAQQEE&#10;BUBQAEEBBAUQFABBAQQFEBQAQQEEBRAUQFAABAUQFEBQAAQFEBRAUABBARAUQFAA&#10;QQEQFEBQAEEBBAVAUABBAQQFQFAAQQEEBRAUAEEBBAUQFEBQAAQFEBRAUAAEBRAU&#10;QFAAQQEQFEBQAEEBEBRAUABBAQQFQFAAQQEEBUBQAEEBBAUQFABBAQQFEBQAQQEE&#10;BRAUQFAABAUQFEBQAAQFEBRAUABBARAUQFAAQQH4KzkFzNoDnmNyGjGhAIICCApQ&#10;MfdQWLN2b8U9E0woHBKTLf+OoMBTsRAVBAUQFEBQeEHTwV/HSaQnXjjLGmNNxeLc&#10;URGXev//p2ev9bTxSZeIDMXqBaUq7cZjaxHxWqgvKH2s4W6Y2DWh5Ji8z+sW26Tl&#10;WOecny4yppLzyNf9La79YW9Qyi1OjkkXj6+N+y+CIii1Tyh5kPgV1//waGeSnnzS&#10;sQiLoEDdQRljy3OL1cexL295yidt4mOOiT9qOtc0Ylo557Ynb336YkLZ9UJqi3W5&#10;ewzUPaV89u7uIb+Z2gN/mwGvExUTKAAAAAAAQNX+ANBwj6XDknwgAAAAAElFTkSu&#10;QmCC" height="238" preserveAspectRatio="none"/>
      <rect x="1841.9463" y="-338.0127" transform="matrix(0.4923,0,0,0.4923,-897.7889,175.4216)" clip-path="url(#clipPath2)" fill="url(#linearGradient2)" width="519.1426" image-rendering="auto" rx="4" ry="4" height="442.1042" stroke="none"/>
    </g>
    <g stroke-linecap="butt" transform="matrix(1,0,0,1,-1823,467)" fill="rgb(18,62,162)" text-rendering="geometricPrecision" shape-rendering="geometricPrecision" stroke="rgb(18,62,162)" stroke-miterlimit="1.45">
      <rect x="1841.9463" y="-338.0127" clip-path="url(#clipPath2)" fill="none" width="519.1426" rx="4" ry="4" height="442.1042"/>
    </g>
    <g stroke-linecap="butt" transform="matrix(1,0,0,1,-1823,467)" fill-opacity="0" fill="rgb(0,0,0)" text-rendering="geometricPrecision" shape-rendering="geometricPrecision" stroke="rgb(0,0,0)" stroke-opacity="0" stroke-miterlimit="1.45">
      <path d="M2094.0176 85.0914 L2109.0176 85.0914 L2109.0176 100.0914 L2094.0176 100.0914 Z" clip-path="url(#clipPath2)" stroke="none"/>
    </g>
    <g text-rendering="geometricPrecision" shape-rendering="geometricPrecision" transform="matrix(1,0,0,1,-1823,467)" stroke-linecap="butt">
      <path fill="none" d="M2094.0176 85.0914 L2109.0176 85.0914 L2109.0176 100.0914 L2094.0176 100.0914 Z" clip-path="url(#clipPath2)"/>
      <path fill="none" d="M2097.6775 92.5914 L2105.3577 92.5914" clip-path="url(#clipPath2)"/>
      <text x="2056.1953" y="-320.874" clip-path="url(#clipPath2)" font-family="sans-serif" stroke="none" xml:space="preserve" stroke-miterlimit="1.45">NVM Controller</text>
    </g>
    <g text-rendering="geometricPrecision" shape-rendering="geometricPrecision" transform="matrix(1,0,0,1,50.5908,191.5)" image-rendering="optimizeQuality">
      <image x="0" y="0" clip-path="url(#clipPath5)" width="157" xlink:href="data:image/png;base64,iVBORw0KGgoAAAANSUhEUgAAAJ0AAABMCAYAAAB3RLVcAAACpElEQVR42u2dDW+C&#10;MBBAKXSf///HjgntJLnLbqRK+XBq+15yCTrpBj7vrjht0wAAAAAAAAA8Om7jPm7n&#10;GPDcxMR2vIV002NbI51DOOQzEcz2bumcEa6TaGcCQr3CTbKNJsKSeD5Tuk4e+yLh&#10;jXyU2Loz3CBxOse3kS9ulU4z3PS4N4n3c7wa6RCuXvFGEW6SrRcXevOzzdJ1kt0m&#10;2T7P8SHSecpr9dIFyXC9JCC9L1wrsz4jy6l0byKclQ7qveKhgmmr1Uh2O0m4LdLN&#10;y+vrLDrOf/UE09cPs35/2FJeU7NWb7Ypq6DCqRs+56pGTqaz8l0aLHL+qyuvlxLU&#10;4uSyXfGLEA4Oeb7be/8BUJ94LecP7tUIAiAdIB0A0gHSASAdIB0A0gHSAdIBIB0g&#10;HQDSAdIBIB0gHSAdANIB0gEgHSAdANLBI8OX4PzyH1+TweeEyXSAdEB5hWTZjZml&#10;mVKKdIf1d27lGMiHdLvliytERDh6umJnxWS6AmVZyljxwn6ObEemA6QDyiukSqbL&#10;6NPilf0pr2Q6QLrnnGDMv/ibGSrSAT1dmb3e0n2AdJvK6FH7IyXS3STbwT/1dDTQ&#10;VIG7TCQQD+FuUl7t8tm1iBeb9CWRPf9lUvoLNOa0Hj5jkJAIfUJioa9ge3w5x5l6&#10;wz/1jkSJ5yu1mnXcKp3NbrpW+yDbY4HNtMu8b8+EIxZ0rlS2MeFHuHasOZlOB/yW&#10;0BWtS15o+MjjKnmmG2ZunOT2ZumsydNgffN3rXZfmHR8BHFdlosz6b7EkV3SWfFO&#10;MqhmPl2rvUU6pBPpeiPdeIR0wyydesl6vHdbL7YSDpKYtLzGI17duj57Z2TTtdq5&#10;TlencE1iMhGWSuvakuIuBNQtny21MVekR+6B4HmyHgAAAAAAAEBB/ABss8dr2El0&#10;GQAAAABJRU5ErkJggg==" height="76" preserveAspectRatio="none"/>
      <rect x="1881.5908" y="-267.5" transform="matrix(1,0,0,1,-1873.5908,275.5)" clip-path="url(#clipPath2)" fill="url(#linearGradient3)" width="136.8184" image-rendering="auto" rx="4" ry="4" height="55" stroke="none"/>
    </g>
    <g stroke-linecap="butt" transform="matrix(1,0,0,1,-1823,467)" fill="rgb(18,62,162)" text-rendering="geometricPrecision" shape-rendering="geometricPrecision" stroke="rgb(18,62,162)" stroke-miterlimit="1.45">
      <rect x="1881.5908" y="-267.5" clip-path="url(#clipPath2)" fill="none" width="136.8184" rx="4" ry="4" height="55"/>
    </g>
    <g stroke-linecap="butt" transform="matrix(1,0,0,1,-1823,467)" fill-opacity="0" fill="rgb(0,0,0)" text-rendering="geometricPrecision" shape-rendering="geometricPrecision" stroke="rgb(0,0,0)" stroke-opacity="0" stroke-miterlimit="1.45">
      <path d="M1942.5 -231.5 L1957.5 -231.5 L1957.5 -216.5 L1942.5 -216.5 Z" clip-path="url(#clipPath2)" stroke="none"/>
    </g>
    <g text-rendering="geometricPrecision" shape-rendering="geometricPrecision" transform="matrix(1,0,0,1,-1823,467)" stroke-linecap="butt">
      <path fill="none" d="M1942.5 -231.5 L1957.5 -231.5 L1957.5 -216.5 L1942.5 -216.5 Z" clip-path="url(#clipPath2)"/>
      <path fill="none" d="M1946.16 -224 L1953.84 -224 M1950 -227.84 L1950 -220.16" clip-path="url(#clipPath2)"/>
      <text x="1888.5908" y="-235.8457" clip-path="url(#clipPath2)" font-family="sans-serif" stroke="none" xml:space="preserve" stroke-miterlimit="1.45">Fetch State Machine</text>
    </g>
    <g text-rendering="geometricPrecision" shape-rendering="geometricPrecision" transform="matrix(1,0,0,1,37.5596,311.5)" image-rendering="optimizeQuality">
      <image x="0" y="0" clip-path="url(#clipPath6)" width="183" xlink:href="data:image/png;base64,iVBORw0KGgoAAAANSUhEUgAAALcAAABMCAYAAAAvOyZFAAACqElEQVR42u3djW6i&#10;QBiFYRH6s3v/F+u2wqwmM9lZgjKCoNjnTb5Eq2BC3x7OoLG7HQAAAAAAAP5RTdym&#10;mrkPoIQwcD8sIff5uftM7orYWFHyNF2p5FWh1EnsOs6+JzqwtNhnqdtsujHBm0K5&#10;6/jctzhNJrlqgjUS+xjnO84xSh6myp0S+/y8jzifp3nP5CY2lha8zcQ+ROdC9thk&#10;ueuY1mepf5/mV5S7UUuwktxdFPsrBmr6WXetnjQFqZ3k/ohi53IDS1JlIqcqHLIU&#10;v1pNbqkl772pHXusRJet747Zuu9qLR5L7v5Vkia7rY5gLZLYycEmc3CS3Lng/Wvc&#10;Q70IWKKWXArc0fXe/oYXITY2GfdzVrLAUoRHyg28bHID5AbIDZAbIDfIDZAbIDdA&#10;boDcALkBcoPcALkBcgPkBsgNkBvkBsgNkBsgNzAfX2Y5jzW+Us53w0hugNxQS3DH&#10;uhIKK40KQu7NdfDqxu1JTu7NCB5uEJ7YOvdmUvvR+5LcuLuUYwkcLmxbSW/JDZAb&#10;agnmEUY689jlwWBRKbkBcj/ZQrP/T7NcESE3oHNvpY/r1eTebPWYsz35yf0y6Y0n&#10;7twWRVj6bPjQBSXBselaErIh+PXjNHSpb86nAh3biRWvKdhJNzDpl/jTe2Q1IHbp&#10;sRmSOAw85hhfdjFMlTtP6/Y0xzhtHAuksrfZ56ZS+OHHN0ndZh62mdxhTnKnHX7F&#10;qeNjtVPmYvVMcPxP13PwO97vpsqd/8Wcd/YnE7uN21Zkfo5++eL9Opf7EF08jjWI&#10;0s79HXeakvwtbrsnN7lXlDt5eIi3u3vIfeydHpqY4j6bgrXkbjPB81oyO3mqKHKd&#10;Sb3fzX/LGSg5a/UXlUVXS24Rs7owwBqSh0zyorp2zw/6ANYeAAAAAAAAT8tfBfLE&#10;c+M68d0AAAAASUVORK5CYII=" height="76" preserveAspectRatio="none"/>
      <rect x="1868.5596" y="-147.5" transform="matrix(1,0,0,1,-1860.5596,155.5)" clip-path="url(#clipPath2)" fill="url(#linearGradient4)" width="162.8809" image-rendering="auto" rx="4" ry="4" height="55" stroke="none"/>
    </g>
    <g stroke-linecap="butt" transform="matrix(1,0,0,1,-1823,467)" fill="rgb(18,62,162)" text-rendering="geometricPrecision" shape-rendering="geometricPrecision" stroke="rgb(18,62,162)" stroke-miterlimit="1.45">
      <rect x="1868.5596" y="-147.5" clip-path="url(#clipPath2)" fill="none" width="162.8809" rx="4" ry="4" height="55"/>
    </g>
    <g stroke-linecap="butt" transform="matrix(1,0,0,1,-1823,467)" fill-opacity="0" fill="rgb(0,0,0)" text-rendering="geometricPrecision" shape-rendering="geometricPrecision" stroke="rgb(0,0,0)" stroke-opacity="0" stroke-miterlimit="1.45">
      <path d="M1942.5 -111.5 L1957.5 -111.5 L1957.5 -96.5 L1942.5 -96.5 Z" clip-path="url(#clipPath2)" stroke="none"/>
    </g>
    <g text-rendering="geometricPrecision" shape-rendering="geometricPrecision" transform="matrix(1,0,0,1,-1823,467)" stroke-linecap="butt">
      <path fill="none" d="M1942.5 -111.5 L1957.5 -111.5 L1957.5 -96.5 L1942.5 -96.5 Z" clip-path="url(#clipPath2)"/>
      <path fill="none" d="M1946.16 -104 L1953.84 -104 M1950 -107.84 L1950 -100.16" clip-path="url(#clipPath2)"/>
      <text x="1875.5596" y="-115.8457" clip-path="url(#clipPath2)" font-family="sans-serif" stroke="none" xml:space="preserve" stroke-miterlimit="1.45">Execution State Machine</text>
    </g>
    <g text-rendering="geometricPrecision" shape-rendering="geometricPrecision" transform="matrix(1,0,0,1,25.9463,431.5)" image-rendering="optimizeQuality">
      <image x="0" y="0" clip-path="url(#clipPath7)" width="207" xlink:href="data:image/png;base64,iVBORw0KGgoAAAANSUhEUgAAAM8AAABMCAYAAADKpeMpAAACtElEQVR42u3di26q&#10;QBRGYW5tzznv/7BVwTmabJIJ8TICtpV+K9kRFbBxWP570NCqAgAAAAAAALAO9cxt&#10;6oX7AH4C6cJyeoY853WbTJ6aONiIQHkdSwWqC9cZxWmjmolIwCuLc4waosb7N+kK&#10;5Wlj3beoLpNI64ZXbtlGafpTHbKq7gnUFYjTxHofUX9O9Z7JQxy8skCjPPtT7U71&#10;Gc8dsmSaLU8baXOW5t+p/oY8nbYNG5OnyxLneG/+0xWkzijPR4iTywO8MnUmTxuP&#10;DZE6fdQqbdv7pFrvPTaSPk2WOPsIi108fjV97iXP9Cxbly1r17CV5Gmz2650Pl+S&#10;PLlE1+Y4yTjgBcVJF7qsJlu+SfPACxEHW2vXbh3v1VryzPkDgE3TeAsA8gDkAcgD&#10;kAcAeQDyAOQByAOQBwB5APIA5AHIA5AHAHkA8gDkAcgDgDwAeQDyAOQBfgsu1v61&#10;PPsSxa6jJ3kA8gDaNnxZO5cKWz4tGnkIM3NeVBOJPCQqSxT/ocKcBzNSBpIHN0gP&#10;PF9nt9JH8gDkAbRt+JJWreSsW3KyQPIAkgdPo76QPNJG8gCSB8+dB0kcyYPCFm3u&#10;tr5klTyQNr8veXzygTwEgpb5OW1byopAzx3MJb+qNg6Pv+fpynGelspz3sHxQqXK&#10;jxKXftqlG4P4yBwomSetMr+8dIynufLkBg6n6qOGKAO1vFWoVxh0JxmWjccoyzCp&#10;4xJ5qok4+6g2nmu1CT9mrkia+YzynI/tXdz2JelzL3lGIw+x41GcIbYlz/cJQ6L1&#10;5BlCms84zg8l3VXpnOcQOx6T6C229SUrebYgT58FxGeItJo8/eSFukgh8uDVTxTk&#10;U5NDVF8y53nkSi1NCDNK01R+IoJtyDM9aTA+tlobUV8pYAsCPfQdz9IenDjYkkAA&#10;AAAAAAAAvo3/DUfIUE29feYAAAAASUVORK5CYII=" height="76" preserveAspectRatio="none"/>
      <rect x="1856.9463" y="-27.5" transform="matrix(1,0,0,1,-1848.9463,35.5)" clip-path="url(#clipPath2)" fill="url(#linearGradient5)" width="186.1074" image-rendering="auto" rx="4" ry="4" height="55" stroke="none"/>
    </g>
    <g stroke-linecap="butt" transform="matrix(1,0,0,1,-1823,467)" fill="rgb(18,62,162)" text-rendering="geometricPrecision" shape-rendering="geometricPrecision" stroke="rgb(18,62,162)" stroke-miterlimit="1.45">
      <rect x="1856.9463" y="-27.5" clip-path="url(#clipPath2)" fill="none" width="186.1074" rx="4" ry="4" height="55"/>
    </g>
    <g stroke-linecap="butt" transform="matrix(1,0,0,1,-1823,467)" fill-opacity="0" fill="rgb(0,0,0)" text-rendering="geometricPrecision" shape-rendering="geometricPrecision" stroke="rgb(0,0,0)" stroke-opacity="0" stroke-miterlimit="1.45">
      <path d="M1942.5 8.5 L1957.5 8.5 L1957.5 23.5 L1942.5 23.5 Z" clip-path="url(#clipPath2)" stroke="none"/>
    </g>
    <g text-rendering="geometricPrecision" shape-rendering="geometricPrecision" transform="matrix(1,0,0,1,-1823,467)" stroke-linecap="butt">
      <path fill="none" d="M1942.5 8.5 L1957.5 8.5 L1957.5 23.5 L1942.5 23.5 Z" clip-path="url(#clipPath2)"/>
      <path fill="none" d="M1946.16 16 L1953.84 16 M1950 12.16 L1950 19.84" clip-path="url(#clipPath2)"/>
      <text x="1863.9463" y="4.1543" clip-path="url(#clipPath2)" font-family="sans-serif" stroke="none" xml:space="preserve" stroke-miterlimit="1.45">Data Transfer State Machine</text>
    </g>
    <g text-rendering="geometricPrecision" shape-rendering="geometricPrecision" transform="matrix(1,0,0,1,322.9111,431.5)" image-rendering="optimizeQuality">
      <image x="0" y="0" clip-path="url(#clipPath8)" width="213" xlink:href="data:image/png;base64,iVBORw0KGgoAAAANSUhEUgAAANUAAABMCAYAAAD6KfIIAAACwUlEQVR42u3di04a&#10;QRSA4b15ad//YVV2mUJyNp0SLsOyoB2+L5mouGID/J5ZaLRpAAAAAIA6tQu/pr3x&#10;OuAnS0feT/eIan9sl0XVCorKw8rXtjSstvCYOag+VncQGNQY1DbWFGv++KyhMKo+&#10;jn2JNWRx2QJS49ZvjmncrU22mkthDQVBdXHcW6z33XrNohIUNYY1R/W1W5+79RGf&#10;22STbHFUfUynfUy/d+tXRDXY/vEkUQ3ZhNpeOr8aCqbUHNVbBJVHBTVqs6j6uGyK&#10;KTXGWmX793qwerc9lU+rLptQXzFcPuPyk9Pq0qQ6fNZvyN637aP2SdVnb4fS5xFK&#10;JlUe16lzqOR+oKKg0pHdWpe9f1Z3xTcSFM+y7TvXQbNWVEv+AfCUOjcBiApEBaIC&#10;RAWiAlEBogJRgagAUYGoQFQgKkBUICoQFSAqEBWIChAViApEBfzljwx8n0f82my/&#10;l9GkAlEBtn//3bYwLTwGUQnphnOvVmCiojyeVHismJxTccUkuuZ6/DE+k4oFUyfd&#10;IUpMKhAV2P7xsK1em70tOe9KZz72hIVJBSYVj3PsGb18smFSgUnF959vXXM5JhXN&#10;Oi/ato0Xf00qVplYVDip/FSEO2z/hEWN2/G7b/9StoT12Ds23XB7u1+W3/7pxOM/&#10;3RrV/gq2R5bXStYLJ124Qy+dY+XHJ+diq5/LHnvsp6VR5WVOuzXGmmK5w9bdZrQr&#10;PQhEtc59M0c0HaztLVE1B0F9xerjc73txc/ZxwtpdXNU+8f8Z7wdS6bVpUk1l7qJ&#10;K56DmuJrRfUzQhLYfaKaIqaPePxvSnZppedUm7jieXK9xNd68VhUNUc1ZgPlIwJb&#10;Larx4BsNMbVERa1PUOSnPptYY8k51TVPzXYR0hxT1/z732OgtqgOn6yYL1ttC9Ke&#10;WFBzWFe9RnXrvl5QPENYAAAAAADhD9gpylQKATxnAAAAAElFTkSuQmCC" height="76" preserveAspectRatio="none"/>
      <rect x="2153.9111" y="-27.5" transform="matrix(1,0,0,1,-2145.9111,35.5)" clip-path="url(#clipPath2)" fill="url(#linearGradient6)" width="192.1777" image-rendering="auto" rx="4" ry="4" height="55" stroke="none"/>
    </g>
    <g stroke-linecap="butt" transform="matrix(1,0,0,1,-1823,467)" fill="rgb(18,62,162)" text-rendering="geometricPrecision" shape-rendering="geometricPrecision" stroke="rgb(18,62,162)" stroke-miterlimit="1.45">
      <rect x="2153.9111" y="-27.5" clip-path="url(#clipPath2)" fill="none" width="192.1777" rx="4" ry="4" height="55"/>
    </g>
    <g stroke-linecap="butt" transform="matrix(1,0,0,1,-1823,467)" fill-opacity="0" fill="rgb(0,0,0)" text-rendering="geometricPrecision" shape-rendering="geometricPrecision" stroke="rgb(0,0,0)" stroke-opacity="0" stroke-miterlimit="1.45">
      <path d="M2242.5 8.5 L2257.5 8.5 L2257.5 23.5 L2242.5 23.5 Z" clip-path="url(#clipPath2)" stroke="none"/>
    </g>
    <g text-rendering="geometricPrecision" shape-rendering="geometricPrecision" transform="matrix(1,0,0,1,-1823,467)" stroke-linecap="butt">
      <path fill="none" d="M2242.5 8.5 L2257.5 8.5 L2257.5 23.5 L2242.5 23.5 Z" clip-path="url(#clipPath2)"/>
      <path fill="none" d="M2246.1599 16 L2253.8401 16 M2250 12.16 L2250 19.84" clip-path="url(#clipPath2)"/>
      <text x="2160.9111" y="4.1543" clip-path="url(#clipPath2)" font-family="sans-serif" stroke="none" xml:space="preserve" stroke-miterlimit="1.45">Data Structure State Machine</text>
    </g>
    <g text-rendering="geometricPrecision" stroke-miterlimit="1.45" shape-rendering="geometricPrecision" transform="matrix(1,0,0,1,-1823,467)" stroke-linecap="butt">
      <path fill="none" d="M1950 -212.4902 L1950 -155.5032" clip-path="url(#clipPath2)"/>
    </g>
    <g text-rendering="geometricPrecision" stroke-miterlimit="1.45" shape-rendering="geometricPrecision" transform="matrix(1,0,0,1,-1823,467)" stroke-linecap="butt">
      <path d="M1950 -147.5032 L1955 -159.5032 L1950 -156.5032 L1945 -159.5032 Z" clip-path="url(#clipPath2)" stroke="none"/>
      <path fill="none" d="M1950 -92.4902 L1950 -60 L1950 -35.5098" clip-path="url(#clipPath2)"/>
      <path d="M1950 -27.5098 L1955 -39.5098 L1950 -36.5098 L1945 -39.5098 Z" clip-path="url(#clipPath2)" stroke="none"/>
      <path fill="none" d="M2031.4087 -120 L2250 -120 L2250 -35.5098" clip-path="url(#clipPath2)"/>
      <path d="M2250 -27.5098 L2255 -39.5098 L2250 -36.5098 L2245 -39.5098 Z" clip-path="url(#clipPath2)" stroke="none"/>
    </g>
  </g>
</svg>
