4F
4E
46
49
06
00
38
00
3F
00
00
00
00
00
00
00
00
00
00
00
00
00
00
00
00
00
00
00
00
00
00
00
4D
49
43
52
4F
4E
20
20
20
20
20
20
4D
54
32
39
48
31
36
47
30
38
45
43
41
20
20
20
20
20
20
20
2C
00
00
00
00
00
00
00
00
00
00
00
00
00
00
00
00
10
00
00
E0
00
00
02
00
00
1C
00
80
00
00
00
00
08
00
00
01
23
01
32
00
01
05
01
00
00
02
00
08
02
0E
00
00
00
00
00
00
00
00
00
00
00
00
00
05
1F
00
1F
00
F4
01
10
27
19
00
C8
00
1F
00
02
25
00
2C
00
28
00
05
07
00
00
00
00
00
00
00
00
00
00
00
00
01
00
01
00
00
00
04
10
01
81
04
02
02
01
0A
90
00
00
00
00
00
00
00
00
00
00
00
00
00
00
00
00
00
00
00
00
00
00
00
00
00
00
00
00
00
00
00
00
00
00
00
00
00
00
00
00
00
00
00
00
00
00
00
00
00
00
00
00
00
00
00
00
00
00
00
00
00
00
00
00
00
00
00
00
00
00
00
00
00
00
F1
75


